{
    "page": 1,
    "total_results": 19706,
    "total_pages": 986,
    "results": [{
                "vote_count": 7100,
                "id": 198663,
                "video": false,
                "vote_average": 7,
                "title": "The Maze Runner",
                "popularity": 456.691412,
                "poster_path": "\/coss7RgL0NH6g4fC2s5atvf3dFO.jpg",
                "original_language": "en",
                "original_title": "The Maze Runner",
                "genre_ids": [28, 9648, 878, 53],
                "backdrop_path": "\/lkOZcsXcOLZYeJ2YxJd3vSldvU4.jpg",
                "adult": false,
                "overview": "Set in a post-apocalyptic world, young Thomas is deposited in a community of boys after his memory is erased, soon learning they're all trapped in a maze that will require him to join forces with fellow “runners” for a shot at escape.",
                "release_date": "2014-09-10"
                }, {
                "vote_count": 6261,
                "id": 269149,
                "video": false,
                "vote_average": 7.7,
                "title": "Zootopia",
                "popularity": 383.694688,
                "poster_path": "\/sM33SANp9z6rXW8Itn7NnG1GOEs.jpg",
                "original_language": "en",
                "original_title": "Zootopia",
                "genre_ids": [16, 12, 10751, 35],
                "backdrop_path": "\/mhdeE1yShHTaDbJVdWyTlzFvNkr.jpg",
                "adult": false,
                "overview": "Determined to prove herself, Officer Judy Hopps, the first bunny on Zootopia's police force, jumps at the chance to crack her first case - even if it means partnering with scam-artist fox Nick Wilde to solve the mystery.",
                "release_date": "2016-02-11"
                }, {
                "vote_count": 2960,
                "id": 214756,
                "video": false,
                "vote_average": 6.2,
                "title": "Ted 2",
                "popularity": 286.894903,
                "poster_path": "\/A7HtCxFe7Ms8H7e7o2zawppbuDT.jpg",
                "original_language": "en",
                "original_title": "Ted 2",
                "genre_ids": [35],
                "backdrop_path": "\/nkwoiSVJLeK0NI8kTqioBna61bm.jpg",
                "adult": false,
                "overview": "Newlywed couple Ted and Tami-Lynn want to have a baby, but in order to qualify to be a parent, Ted will have to prove he's a person in a court of law.",
                "release_date": "2015-06-25"
                }, {
                "vote_count": 4217,
                "id": 216015,
                "video": false,
                "vote_average": 5.3,
                "title": "Fifty Shades of Grey",
                "popularity": 247.069684,
                "poster_path": "\/jV8wnk3Jgz6f7degmT3lHNGI2tK.jpg",
                "original_language": "en",
                "original_title": "Fifty Shades of Grey",
                "genre_ids": [18, 10749, 53],
                "backdrop_path": "\/zAd0MjURkOvJynIsqmLMBcICxUt.jpg",
                "adult": false,
                "overview": "When college senior Anastasia Steele steps in for her sick roommate to interview prominent businessman Christian Grey for their campus paper, little does she realize the path her life will take. Christian, as enigmatic as he is rich and powerful, finds himself strangely drawn to Ana, and she to him. Though sexually inexperienced, Ana plunges headlong into an affair -- and learns that Christian's true sexual proclivities push the boundaries of pain and pleasure.",
                "release_date": "2015-02-11"
                }, {
                "vote_count": 5019,
                "id": 374720,
                "video": false,
                "vote_average": 7.4,
                "title": "Dunkirk",
                "popularity": 235.913239,
                "poster_path": "\/ebSnODDg9lbsMIaWg2uAbjn7TO5.jpg",
                "original_language": "en",
                "original_title": "Dunkirk",
                "genre_ids": [28, 18, 36, 53, 10752],
                "backdrop_path": "\/4yjJNAgXBmzxpS6sogj4ftwd270.jpg",
                "adult": false,
                "overview": "The story of the miraculous evacuation of Allied soldiers from Belgium, Britain, Canada and France, who were cut off and surrounded by the German army from the beaches and harbour of Dunkirk between May 26th and June 4th 1940 during World War II.",
                "release_date": "2017-07-19"
                }, {
                "vote_count": 124,
                "id": 335777,
                "video": false,
                "vote_average": 5.8,
                "title": "The Nut Job 2: Nutty by Nature",
                "popularity": 185.029102,
                "poster_path": "\/xOfdQHNF9TlrdujyAjiKfUhxSXy.jpg",
                "original_language": "en",
                "original_title": "The Nut Job 2: Nutty by Nature",
                "genre_ids": [10751, 16, 12, 35],
                "backdrop_path": "\/bd1X5nNrrAHVGG0MxsAeCOPPh1w.jpg",
                "adult": false,
                "overview": "When the evil mayor of Oakton decides to bulldoze Liberty Park and build a dangerous amusement park in its place, Surly Squirrel and his ragtag group of animal friends need to band together to save their home, defeat the mayor, and take back the park.",
                "release_date": "2017-08-11"
                }, {
                "vote_count": 3288,
                "id": 281338,
                "video": false,
                "vote_average": 6.8,
                "title": "War for the Planet of the Apes",
                "popularity": 183.200145,
                "poster_path": "\/3vYhLLxrTtZLysXtIWktmd57Snv.jpg",
                "original_language": "en",
                "original_title": "War for the Planet of the Apes",
                "genre_ids": [18, 878, 10752],
                "backdrop_path": "\/ulMscezy9YX0bhknvJbZoUgQxO5.jpg",
                "adult": false,
                "overview": "Caesar and his apes are forced into a deadly conflict with an army of humans led by a ruthless Colonel. After the apes suffer unimaginable losses, Caesar wrestles with his darker instincts and begins his own mythic quest to avenge his kind. As the journey finally brings them face to face, Caesar and the Colonel are pitted against each other in an epic battle that will determine the fate of both their species and the future of the planet.",
                "release_date": "2017-07-11"
                }, {
                "vote_count": 3405,
                "id": 315837,
                "video": false,
                "vote_average": 5.9,
                "title": "Ghost in the Shell",
                "popularity": 169.218049,
                "poster_path": "\/myRzRzCxdfUWjkJWgpHHZ1oGkJd.jpg",
                "original_language": "en",
                "original_title": "Ghost in the Shell",
                "genre_ids": [28, 878, 53],
                "backdrop_path": "\/jGPSVArC0GS2VVc0aGAqGTjfFOG.jpg",
                "adult": false,
                "overview": "In the near future, Major is the first of her kind: a human saved from a terrible crash, then cyber-enhanced to be a perfect soldier devoted to stopping the world's most dangerous criminals.",
                "release_date": "2017-03-29"
                }, {
                "vote_count": 314,
                "id": 433310,
                "video": false,
                "vote_average": 6.8,
                "title": "When We First Met",
                "popularity": 159.703994,
                "poster_path": "\/pscQKoikkSJxAu8O5LKtjgGJEt1.jpg",
                "original_language": "en",
                "original_title": "When We First Met",
                "genre_ids": [35],
                "backdrop_path": "\/3XyHJfsb4cUAxekfQCUkrcu3UmL.jpg",
                "adult": false,
                "overview": "Noah spends the perfect first night with the girl of his dreams Avery but gets relegated to the friend zone. He spends the next three years wondering what went wrong - until he gets the unexpected chance to travel back in time and alter that night, and his fate, over and over again.",
                "release_date": "2018-02-09"
                }, {
                "vote_count": 2722,
                "id": 339846,
                "video": false,
                "vote_average": 6.1,
                "title": "Baywatch",
                "popularity": 159.48098,
                "poster_path": "\/6HE4xd8zloDqmjMZuhUCCw2UcY1.jpg",
                "original_language": "en",
                "original_title": "Baywatch",
                "genre_ids": [28, 35],
                "backdrop_path": "\/t6TL7V9IsT4Ktx6YO8b1UYj3agd.jpg",
                "adult": false,
                "overview": "Devoted lifeguard Mitch Buchannon butts heads with a brash new recruit. Together, they uncover a local criminal plot that threatens the future of the Bay.",
                "release_date": "2017-05-12"
                }, {
                "vote_count": 255,
                "id": 347882,
                "video": false,
                "vote_average": 5.2,
                "title": "Sleight",
                "popularity": 143.76627,
                "poster_path": "\/wridRvGxDqGldhzAIh3IcZhHT5F.jpg",
                "original_language": "en",
                "original_title": "Sleight",
                "genre_ids": [18, 53, 28, 878],
                "backdrop_path": "\/2SEgJ0mHJ7TSdVDbkGU061tR33K.jpg",
                "adult": false,
                "overview": "A young street magician is left to take care of his little sister after his mother's passing and turns to drug dealing in the Los Angeles party scene to keep a roof over their heads. When he gets into trouble with his supplier, his sister is kidnapped and he is forced to rely on both his sleight of hand and brilliant mind to save her.",
                "release_date": "2017-04-28"
                }, {
                "vote_count": 7588,
                "id": 284052,
                "video": false,
                "vote_average": 7.2,
                "title": "Doctor Strange",
                "popularity": 134.898603,
                "poster_path": "\/4PiiNGXj1KENTmCBHeN6Mskj2Fq.jpg",
                "original_language": "en",
                "original_title": "Doctor Strange",
                "genre_ids": [28, 12, 14, 878],
                "backdrop_path": "\/tFI8VLMgSTTU38i8TIsklfqS9Nl.jpg",
                "adult": false,
                "overview": "After his career is destroyed, a brilliant but arrogant surgeon gets a new lease on life when a sorcerer takes him under his wing and trains him to defend the world against evil.",
                "release_date": "2016-10-25"
                }, {
                "vote_count": 278,
                "id": 393345,
                "video": false,
                "vote_average": 5.1,
                "title": "Cult of Chucky",
                "popularity": 121.952653,
                "poster_path": "\/r5JUiMYfatwYeDkxkLWYUx5GIjY.jpg",
                "original_language": "en",
                "original_title": "Cult of Chucky",
                "genre_ids": [27, 53],
                "backdrop_path": "\/lle3uwidvcWxBV6JDhb1NlVGxdE.jpg",
                "adult": false,
                "overview": "Confined to an asylum for the criminally insane for the past four years, Nica Pierce is erroneously convinced that she, not Chucky, murdered her entire family. But when her psychiatrist introduces a new therapeutic “tool” to facilitate his patients’ group sessions — an all-too-familiar “Good Guy” doll with an innocently smiling face — a string of grisly deaths begins to plague the asylum, and Nica starts to wonder if maybe she isn’t crazy after all. Meanwhile, Andy Barclay, Chucky’s now all-grown-up nemesis from the first three Child’s Plays, races to Nica’s aid. But to save her he’ll have to get past Tiffany, Chucky’s long-ago bride, who will do anything, no matter how deadly or depraved, to help her beloved evil devilish doll.",
                "release_date": "2017-09-23"
                }, {
                "vote_count": 1854,
                "id": 396422,
                "video": false,
                "vote_average": 6.4,
                "title": "Annabelle: Creation",
                "popularity": 119.985926,
                "poster_path": "\/tb86j8jVCVsdZnzf8I6cIi65IeM.jpg",
                "original_language": "en",
                "original_title": "Annabelle: Creation",
                "genre_ids": [27, 9648, 53],
                "backdrop_path": "\/3L5gfIKt2RK9vnCiLgWTAzkhQWC.jpg",
                "adult": false,
                "overview": "Several years after the tragic death of their little girl, a dollmaker and his wife welcome a nun and several girls from a shuttered orphanage into their home, soon becoming the target of the dollmaker's possessed creation, Annabelle.",
                "release_date": "2017-08-03"
                }, {
                "vote_count": 6782,
                "id": 346364,
                "video": false,
                "vote_average": 7.1,
                "title": "It",
                "popularity": 119.416845,
                "poster_path": "\/9E2y5Q7WlCVNEhP5GiVTjhEhx1o.jpg",
                "original_language": "en",
                "original_title": "It",
                "genre_ids": [18, 27, 53],
                "backdrop_path": "\/tcheoA2nPATCm2vvXw2hVQoaEFD.jpg",
                "adult": false,
                "overview": "In a small town in Maine, seven children known as The Losers Club come face to face with life problems, bullies and a monster that takes the shape of a clown called Pennywise.",
                "release_date": "2017-09-05"
                }, {
                "vote_count": 4037,
                "id": 294254,
                "video": false,
                "vote_average": 6.5,
                "title": "Maze Runner: The Scorch Trials",
                "popularity": 118.839161,
                "poster_path": "\/vlTPQANjLYTebzFJM1G4KeON0cb.jpg",
                "original_language": "en",
                "original_title": "Maze Runner: The Scorch Trials",
                "genre_ids": [28],
                "backdrop_path": "\/iapRFMGKvN9tsjqPlN7MIDTCezG.jpg",
                "adult": false,
                "overview": "Thomas and his fellow Gladers face their greatest challenge yet: searching for clues about the mysterious and powerful organization known as WCKD. Their journey takes them to the Scorch, a desolate landscape filled with unimaginable obstacles. Teaming up with resistance fighters, the Gladers take on WCKD’s vastly superior forces and uncover its shocking plans for them all.",
                "release_date": "2015-09-09"
                }, {
                "vote_count": 2632,
                "id": 354912,
                "video": false,
                "vote_average": 7.8,
                "title": "Coco",
                "popularity": 114.525336,
                "poster_path": "\/eKi8dIrr8voobbaGzDpe8w0PVbC.jpg",
                "original_language": "en",
                "original_title": "Coco",
                "genre_ids": [12, 16, 35, 10751],
                "backdrop_path": "\/askg3SMvhqEl4OL52YuvdtY40Yb.jpg",
                "adult": false,
                "overview": "Despite his family’s baffling generations-old ban on music, Miguel dreams of becoming an accomplished musician like his idol, Ernesto de la Cruz. Desperate to prove his talent, Miguel finds himself in the stunning and colorful Land of the Dead following a mysterious chain of events. Along the way, he meets charming trickster Hector, and together, they set off on an extraordinary journey to unlock the real story behind Miguel's family history.",
                "release_date": "2017-10-27"
                }, {
                "vote_count": 101,
                "id": 420622,
                "video": false,
                "vote_average": 7.4,
                "title": "Professor Marston and the Wonder Women",
                "popularity": 110.664031,
                "poster_path": "\/uj4BIueaGjPUomL7g3bpal4b8yw.jpg",
                "original_language": "en",
                "original_title": "Professor Marston and the Wonder Women",
                "genre_ids": [18],
                "backdrop_path": "\/dFabKD0pGsOIBvqMsZRH6UVZmnx.jpg",
                "adult": false,
                "overview": "The unconventional life of Dr. William Marston, the Harvard psychologist and inventor who helped invent the modern lie detector test and created Wonder Woman in 1941.",
                "release_date": "2017-10-13"
                }, {
                "vote_count": 7022,
                "id": 131631,
                "video": false,
                "vote_average": 6.7,
                "title": "The Hunger Games: Mockingjay - Part 1",
                "popularity": 108.972308,
                "poster_path": "\/gj282Pniaa78ZJfbaixyLXnXEDI.jpg",
                "original_language": "en",
                "original_title": "The Hunger Games: Mockingjay - Part 1",
                "genre_ids": [878, 12, 53],
                "backdrop_path": "\/4PwyB0ErucIANzW24Kori71J6gU.jpg",
                "adult": false,
                "overview": "Katniss Everdeen reluctantly becomes the symbol of a mass rebellion against the autocratic Capitol.",
                "release_date": "2014-11-18"
                }, {
                "vote_count": 4261,
                "id": 291805,
                "video": false,
                "vote_average": 6.7,
                "title": "Now You See Me 2",
                "popularity": 100.892792,
                "poster_path": "\/hU0E130tsGdsYa4K9lc3Xrn5Wyt.jpg",
                "original_language": "en",
                "original_title": "Now You See Me 2",
                "genre_ids": [28, 12, 35, 80, 9648, 53],
                "backdrop_path": "\/zrAO2OOa6s6dQMQ7zsUbDyIBrAP.jpg",
                "adult": false,
                "overview": "One year after outwitting the FBI and winning the public’s adulation with their mind-bending spectacles, the Four Horsemen resurface only to find themselves face to face with a new enemy who enlists them to pull off their most dangerous heist yet.",
                "release_date": "2016-06-02"
                }]
}
